…
## Installation
```julia
julia> using Pkg

julia> Pkg.add(url = "https://github.com/markgpritchard/SimpleMice.jl")
```

## Example 
Make some sample data with values missing completely at random.
```julia
julia> using SimpleMice

julia> testdata = SimpleMice.testdataset()
1000×9 DataFrame
  Row │ Ages      Sexes    Vara   Varb    Varc   Vard      Vare     Varf   Outcome 
      │ Float64?  String?  Bool?  Int64?  Bool?  Float64?  String?  Bool?  Bool    
──────┼────────────────────────────────────────────────────────────────────────────
    1 │     2.66  F        false       0  false   29.5344  N        false    false
    2 │     1.55  M        false       0  false   29.5971  Y        false    false
    3 │     1.77  M        false       0  false   28.1784  N        false    false
  ⋮   │    ⋮         ⋮       ⋮      ⋮       ⋮       ⋮         ⋮       ⋮       ⋮
  999 │    93.39  M        false       0  false   22.9344  Y         true    false
 1000 │    92.75  F        false       0  false   27.4594  Y         true    false
                                                                   995 rows omitted
…
